{
  "color-basic-100": "#FFFFFF",
  "color-basic-200": "#F5F5F5",
  "color-basic-300": "#F5F5F5",
  "color-basic-400": "#D4D4D4",
  "color-basic-500": "#B3B3B3",
  "color-basic-600": "#808080",
  "color-basic-700": "#4A4A4A",
  "color-basic-800": "#383838",
  "color-basic-900": "#292929",
  "color-basic-1000": "#1F1F1F",
  "color-basic-1100": "#141414",
  "color-basic-transparent-100": "rgba(128, 128, 128, 0.08)",
  "color-basic-transparent-200": "rgba(128, 128, 128, 0.16)",
  "color-basic-transparent-300": "rgba(128, 128, 128, 0.24)",
  "color-basic-transparent-400": "rgba(128, 128, 128, 0.32)",
  "color-basic-transparent-500": "rgba(128, 128, 128, 0.4)",
  "color-basic-transparent-600": "rgba(128, 128, 128, 0.48)",
  "text-basic-color": "$color-basic-400",
  "color-primary-100": "#E0FBE2",
  "color-primary-200": "#C2F7CB",
  "color-primary-300": "#9EE8B2",
  "color-primary-400": "#7ED29C",
  "color-primary-500": "#54B481",
  "color-primary-600": "#3D9A72",
  "color-primary-700": "#2A8164",
  "color-primary-800": "#1A6856",
  "color-primary-900": "#10564D",
  "color-primary-transparent-100": "rgba(84, 180, 129, 0.08)",
  "color-primary-transparent-200": "rgba(84, 180, 129, 0.16)",
  "color-primary-transparent-300": "rgba(84, 180, 129, 0.24)",
  "color-primary-transparent-400": "rgba(84, 180, 129, 0.32)",
  "color-primary-transparent-500": "rgba(84, 180, 129, 0.4)",
  "color-primary-transparent-600": "rgba(84, 180, 129, 0.48)",
  "color-success-100": "#CCFBD5",
  "color-success-200": "#9AF8B5",
  "color-success-300": "#66EC99",
  "color-success-400": "#3FD98A",
  "color-success-500": "#0BC175",
  "color-success-600": "#08A573",
  "color-success-700": "#058A6D",
  "color-success-800": "#036F63",
  "color-success-900": "#025C5A",
  "color-success-transparent-100": "rgba(11, 193, 117, 0.08)",
  "color-success-transparent-200": "rgba(11, 193, 117, 0.16)",
  "color-success-transparent-300": "rgba(11, 193, 117, 0.24)",
  "color-success-transparent-400": "rgba(11, 193, 117, 0.32)",
  "color-success-transparent-500": "rgba(11, 193, 117, 0.4)",
  "color-success-transparent-600": "rgba(11, 193, 117, 0.48)",
  "color-info-100": "#CCF1FC",
  "color-info-200": "#9BDFFA",
  "color-info-300": "#67C3F1",
  "color-info-400": "#41A4E4",
  "color-info-500": "#0A79D3",
  "color-info-600": "#075DB5",
  "color-info-700": "#054697",
  "color-info-800": "#03317A",
  "color-info-900": "#012365",
  "color-info-transparent-100": "rgba(10, 121, 211, 0.08)",
  "color-info-transparent-200": "rgba(10, 121, 211, 0.16)",
  "color-info-transparent-300": "rgba(10, 121, 211, 0.24)",
  "color-info-transparent-400": "rgba(10, 121, 211, 0.32)",
  "color-info-transparent-500": "rgba(10, 121, 211, 0.4)",
  "color-info-transparent-600": "rgba(10, 121, 211, 0.48)",
  "color-warning-100": "#FFFBCE",
  "color-warning-200": "#FFF79D",
  "color-warning-300": "#FFF16D",
  "color-warning-400": "#FFEB48",
  "color-warning-500": "#FFE20C",
  "color-warning-600": "#DBBF08",
  "color-warning-700": "#B79D06",
  "color-warning-800": "#937D03",
  "color-warning-900": "#7A6602",
  "color-warning-transparent-100": "rgba(255, 226, 12, 0.08)",
  "color-warning-transparent-200": "rgba(255, 226, 12, 0.16)",
  "color-warning-transparent-300": "rgba(255, 226, 12, 0.24)",
  "color-warning-transparent-400": "rgba(255, 226, 12, 0.32)",
  "color-warning-transparent-500": "rgba(255, 226, 12, 0.4)",
  "color-warning-transparent-600": "rgba(255, 226, 12, 0.48)",
  "color-danger-100": "#FFE8D7",
  "color-danger-200": "#FFCBAF",
  "color-danger-300": "#FFA887",
  "color-danger-400": "#FF8669",
  "color-danger-500": "#FF4F38",
  "color-danger-600": "#DB2F28",
  "color-danger-700": "#B71C23",
  "color-danger-800": "#931122",
  "color-danger-900": "#7A0A21",
  "color-danger-transparent-100": "rgba(255, 79, 56, 0.08)",
  "color-danger-transparent-200": "rgba(255, 79, 56, 0.16)",
  "color-danger-transparent-300": "rgba(255, 79, 56, 0.24)",
  "color-danger-transparent-400": "rgba(255, 79, 56, 0.32)",
  "color-danger-transparent-500": "rgba(255, 79, 56, 0.4)",
  "color-danger-transparent-600": "rgba(255, 79, 56, 0.48)"
}
